EESchema Schematic File Version 2
LIBS:power
LIBS:device
LIBS:transistors
LIBS:conn
LIBS:linear
LIBS:regul
LIBS:74xx
LIBS:cmos4000
LIBS:adc-dac
LIBS:memory
LIBS:xilinx
LIBS:microcontrollers
LIBS:dsp
LIBS:microchip
LIBS:analog_switches
LIBS:motorola
LIBS:texas
LIBS:intel
LIBS:audio
LIBS:interface
LIBS:digital-audio
LIBS:philips
LIBS:display
LIBS:cypress
LIBS:siliconi
LIBS:opto
LIBS:atmel
LIBS:contrib
LIBS:valves
LIBS:attiny841 breakout-cache
EELAYER 25 0
EELAYER END
$Descr A4 11693 8268
encoding utf-8
Sheet 1 1
Title "ATTiny 841 Breakout"
Date ""
Rev "1"
Comp ""
Comment1 ""
Comment2 ""
Comment3 ""
Comment4 ""
$EndDescr
$Comp
L ATTINY841-SSU IC1
U 1 1 58C4D03E
P 4800 4600
F 0 "IC1" H 3950 5350 50  0000 C CNN
F 1 "ATTINY841-SSU" H 5500 3850 50  0000 C CNN
F 2 "Housings_SOIC:SOIC-14_3.9x8.7mm_Pitch1.27mm" H 4800 4400 50  0000 C CIN
F 3 "" H 4800 4600 50  0000 C CNN
	1    4800 4600
	1    0    0    -1  
$EndComp
$Comp
L Crystal Y1
U 1 1 58C4D094
P 6700 4350
F 0 "Y1" H 6700 4500 50  0000 C CNN
F 1 "Crystal" H 6700 4200 50  0000 C CNN
F 2 "Crystals:Crystal_HC49-U_Vertical" H 6700 4350 50  0001 C CNN
F 3 "" H 6700 4350 50  0000 C CNN
	1    6700 4350
	0    1    1    0   
$EndComp
Wire Wire Line
	6450 4200 7000 4200
Wire Wire Line
	6700 4500 7000 4500
$Comp
L C C2
U 1 1 58C4D0D8
P 7150 4200
F 0 "C2" H 7175 4300 50  0000 L CNN
F 1 "22p" H 7175 4100 50  0000 L CNN
F 2 "Capacitors_SMD:C_1206_HandSoldering" H 7188 4050 50  0001 C CNN
F 3 "" H 7150 4200 50  0000 C CNN
	1    7150 4200
	0    1    1    0   
$EndComp
$Comp
L C C3
U 1 1 58C4D121
P 7150 4500
F 0 "C3" H 7175 4600 50  0000 L CNN
F 1 "22p" H 7175 4400 50  0000 L CNN
F 2 "Capacitors_SMD:C_1206_HandSoldering" H 7188 4350 50  0001 C CNN
F 3 "" H 7150 4500 50  0000 C CNN
	1    7150 4500
	0    1    1    0   
$EndComp
Connection ~ 6700 4200
Connection ~ 6700 4500
Wire Wire Line
	7300 4200 7450 4200
Wire Wire Line
	7450 4200 7450 5450
Wire Wire Line
	7300 4500 7450 4500
Connection ~ 7450 4500
$Comp
L C C1
U 1 1 58C4D1A3
P 3650 4250
F 0 "C1" H 3675 4350 50  0000 L CNN
F 1 "100n" H 3675 4150 50  0000 L CNN
F 2 "Capacitors_SMD:C_1206_HandSoldering" H 3688 4100 50  0001 C CNN
F 3 "" H 3650 4250 50  0000 C CNN
	1    3650 4250
	1    0    0    -1  
$EndComp
Wire Wire Line
	3650 4000 3750 4000
Wire Wire Line
	3650 3850 3650 4100
Connection ~ 3650 4000
Wire Wire Line
	3650 4400 3650 5350
Wire Wire Line
	3650 5200 3750 5200
$Comp
L GND #PWR01
U 1 1 58C4D249
P 3650 5350
F 0 "#PWR01" H 3650 5100 50  0001 C CNN
F 1 "GND" H 3650 5200 50  0000 C CNN
F 2 "" H 3650 5350 50  0000 C CNN
F 3 "" H 3650 5350 50  0000 C CNN
	1    3650 5350
	1    0    0    -1  
$EndComp
Connection ~ 3650 5200
$Comp
L CONN_02X03 P1
U 1 1 58C4D3A1
P 4900 3050
F 0 "P1" H 4900 3250 50  0000 C CNN
F 1 "CONN_02X03" H 4900 2850 50  0000 C CNN
F 2 "Pin_Headers:Pin_Header_Straight_2x03" H 4900 1850 50  0001 C CNN
F 3 "" H 4900 1850 50  0000 C CNN
	1    4900 3050
	1    0    0    -1  
$EndComp
Wire Wire Line
	4650 2950 4600 2950
Wire Wire Line
	4600 2950 4600 2650
Wire Wire Line
	4600 2650 6050 2650
$Comp
L +5V #PWR02
U 1 1 58C4D41C
P 5300 2850
F 0 "#PWR02" H 5300 2700 50  0001 C CNN
F 1 "+5V" H 5300 2990 50  0000 C CNN
F 2 "" H 5300 2850 50  0000 C CNN
F 3 "" H 5300 2850 50  0000 C CNN
	1    5300 2850
	1    0    0    -1  
$EndComp
Wire Wire Line
	5150 2950 5300 2950
Wire Wire Line
	5300 2950 5300 2850
Wire Wire Line
	6050 2650 6050 4500
Wire Wire Line
	6050 4500 5850 4500
Wire Wire Line
	4650 3050 4550 3050
Wire Wire Line
	4550 3050 4550 2600
Wire Wire Line
	4550 2600 6100 2600
Wire Wire Line
	6100 2600 6100 4400
Wire Wire Line
	6100 4400 5850 4400
$Comp
L R R1
U 1 1 58C4D4FC
P 6850 4950
F 0 "R1" V 6930 4950 50  0000 C CNN
F 1 "10K" V 6850 4950 50  0000 C CNN
F 2 "Resistors_SMD:R_1206_HandSoldering" V 6780 4950 50  0001 C CNN
F 3 "" H 6850 4950 50  0000 C CNN
	1    6850 4950
	1    0    0    -1  
$EndComp
Wire Wire Line
	6450 4900 5850 4900
Wire Wire Line
	6450 3000 6450 4900
Wire Wire Line
	6700 5000 6700 4500
Wire Wire Line
	5850 5000 6700 5000
Wire Wire Line
	5850 5200 7000 5200
Wire Wire Line
	6850 5200 6850 5100
$Comp
L +5V #PWR03
U 1 1 58C4D6D1
P 6850 4700
F 0 "#PWR03" H 6850 4550 50  0001 C CNN
F 1 "+5V" H 6850 4840 50  0000 C CNN
F 2 "" H 6850 4700 50  0000 C CNN
F 3 "" H 6850 4700 50  0000 C CNN
	1    6850 4700
	1    0    0    -1  
$EndComp
Wire Wire Line
	6850 4700 6850 4800
$Comp
L SW_PUSH_SMALL_H SW1
U 1 1 58C4D7A3
P 7150 5200
F 0 "SW1" H 7230 5310 50  0000 C CNN
F 1 "SW_PUSH_SMALL_H" H 7510 5140 50  0000 C CNN
F 2 "Buttons_Switches_SMD:SW_SPST_B3S-1000" H 7150 5400 50  0001 C CNN
F 3 "" H 7150 5400 50  0000 C CNN
	1    7150 5200
	1    0    0    -1  
$EndComp
Connection ~ 6850 5200
Wire Wire Line
	7450 5200 7300 5200
Connection ~ 7450 5200
Wire Wire Line
	5150 3050 6000 3050
Wire Wire Line
	6000 3050 6000 4600
Wire Wire Line
	6000 4600 5850 4600
Wire Wire Line
	4500 3150 4650 3150
Wire Wire Line
	4500 2550 4500 3150
Wire Wire Line
	4500 2550 6150 2550
Wire Wire Line
	6150 2550 6150 5200
Connection ~ 6150 5200
$Comp
L GND #PWR04
U 1 1 58C4D97E
P 5300 3250
F 0 "#PWR04" H 5300 3000 50  0001 C CNN
F 1 "GND" H 5300 3100 50  0000 C CNN
F 2 "" H 5300 3250 50  0000 C CNN
F 3 "" H 5300 3250 50  0000 C CNN
	1    5300 3250
	1    0    0    -1  
$EndComp
Wire Wire Line
	5150 3150 5300 3150
Wire Wire Line
	5300 3150 5300 3250
$Comp
L CONN_01X07 P2
U 1 1 58C4DA01
P 8150 3200
F 0 "P2" H 8150 3600 50  0000 C CNN
F 1 "CONN_01X07" V 8250 3200 50  0000 C CNN
F 2 "Pin_Headers:Pin_Header_Straight_1x07" H 8150 3200 50  0001 C CNN
F 3 "" H 8150 3200 50  0000 C CNN
	1    8150 3200
	1    0    0    -1  
$EndComp
$Comp
L +5V #PWR05
U 1 1 58C4DA40
P 7750 2800
F 0 "#PWR05" H 7750 2650 50  0001 C CNN
F 1 "+5V" H 7750 2940 50  0000 C CNN
F 2 "" H 7750 2800 50  0000 C CNN
F 3 "" H 7750 2800 50  0000 C CNN
	1    7750 2800
	1    0    0    -1  
$EndComp
Wire Wire Line
	7750 2800 7750 2900
Wire Wire Line
	7750 2900 7950 2900
Wire Wire Line
	7950 3000 6450 3000
Connection ~ 6450 4200
Wire Wire Line
	7950 3100 6500 3100
Wire Wire Line
	6500 3100 6500 5000
Connection ~ 6500 5000
Wire Wire Line
	7950 3200 6550 3200
Wire Wire Line
	6550 3200 6550 5200
Connection ~ 6550 5200
Wire Wire Line
	7950 3300 6400 3300
Wire Wire Line
	6400 3300 6400 5100
Wire Wire Line
	6400 5100 5850 5100
Wire Wire Line
	7950 3400 6350 3400
Wire Wire Line
	6350 3400 6350 4700
Wire Wire Line
	6350 4700 5850 4700
Wire Wire Line
	7950 3500 6000 3500
Connection ~ 6000 3500
$Comp
L CONN_01X07 P3
U 1 1 58C4DC63
P 8150 3950
F 0 "P3" H 8150 4350 50  0000 C CNN
F 1 "CONN_01X07" V 8250 3950 50  0000 C CNN
F 2 "Pin_Headers:Pin_Header_Straight_1x07" H 8150 3950 50  0001 C CNN
F 3 "" H 8150 3950 50  0000 C CNN
	1    8150 3950
	1    0    0    -1  
$EndComp
Wire Wire Line
	7950 3650 6050 3650
Connection ~ 6050 3650
Wire Wire Line
	7950 3750 6100 3750
Connection ~ 6100 3750
Wire Wire Line
	7950 3850 6200 3850
Wire Wire Line
	6200 3850 6200 4300
Wire Wire Line
	6200 4300 5850 4300
Wire Wire Line
	7950 3950 6250 3950
Wire Wire Line
	6250 3950 6250 4200
Wire Wire Line
	6250 4200 5850 4200
Wire Wire Line
	7950 4050 6300 4050
Wire Wire Line
	6300 4050 6300 4100
Wire Wire Line
	6300 4100 5850 4100
Wire Wire Line
	7950 4150 5950 4150
Wire Wire Line
	5950 4150 5950 4000
Wire Wire Line
	5950 4000 5850 4000
$Comp
L GND #PWR06
U 1 1 58C4DE95
P 7800 4450
F 0 "#PWR06" H 7800 4200 50  0001 C CNN
F 1 "GND" H 7800 4300 50  0000 C CNN
F 2 "" H 7800 4450 50  0000 C CNN
F 3 "" H 7800 4450 50  0000 C CNN
	1    7800 4450
	1    0    0    -1  
$EndComp
Wire Wire Line
	7950 4250 7800 4250
Wire Wire Line
	7800 4250 7800 4450
$Comp
L +5V #PWR07
U 1 1 58CA4D79
P 3650 3850
F 0 "#PWR07" H 3650 3700 50  0001 C CNN
F 1 "+5V" H 3650 3990 50  0000 C CNN
F 2 "" H 3650 3850 50  0000 C CNN
F 3 "" H 3650 3850 50  0000 C CNN
	1    3650 3850
	1    0    0    -1  
$EndComp
$Comp
L GND #PWR08
U 1 1 58CA4DAB
P 7450 5450
F 0 "#PWR08" H 7450 5200 50  0001 C CNN
F 1 "GND" H 7450 5300 50  0000 C CNN
F 2 "" H 7450 5450 50  0000 C CNN
F 3 "" H 7450 5450 50  0000 C CNN
	1    7450 5450
	1    0    0    -1  
$EndComp
$Comp
L PWR_FLAG #FLG09
U 1 1 58CA4F46
P 10600 5650
F 0 "#FLG09" H 10600 5745 50  0001 C CNN
F 1 "PWR_FLAG" H 10600 5830 50  0000 C CNN
F 2 "" H 10600 5650 50  0000 C CNN
F 3 "" H 10600 5650 50  0000 C CNN
	1    10600 5650
	1    0    0    -1  
$EndComp
$Comp
L +5V #PWR010
U 1 1 58CA4F78
P 10350 5650
F 0 "#PWR010" H 10350 5500 50  0001 C CNN
F 1 "+5V" H 10350 5790 50  0000 C CNN
F 2 "" H 10350 5650 50  0000 C CNN
F 3 "" H 10350 5650 50  0000 C CNN
	1    10350 5650
	1    0    0    -1  
$EndComp
Wire Wire Line
	10350 5650 10600 5650
$Comp
L PWR_FLAG #FLG011
U 1 1 58CA507E
P 10600 5900
F 0 "#FLG011" H 10600 5995 50  0001 C CNN
F 1 "PWR_FLAG" H 10600 6080 50  0000 C CNN
F 2 "" H 10600 5900 50  0000 C CNN
F 3 "" H 10600 5900 50  0000 C CNN
	1    10600 5900
	1    0    0    -1  
$EndComp
$Comp
L GND #PWR012
U 1 1 58CA50B0
P 10350 5900
F 0 "#PWR012" H 10350 5650 50  0001 C CNN
F 1 "GND" H 10350 5750 50  0000 C CNN
F 2 "" H 10350 5900 50  0000 C CNN
F 3 "" H 10350 5900 50  0000 C CNN
	1    10350 5900
	1    0    0    -1  
$EndComp
Wire Wire Line
	10350 5900 10600 5900
$EndSCHEMATC
